<svg xmlns="http://www.w3.org/2000/svg" xmlns:xlink="http://www.w3.org/1999/xlink" width="159.42" height="239.079" viewBox="0 0 159.42 239.079">
  <defs>
    <linearGradient id="linear-gradient" x1="0.5" y1="1" x2="0.473" gradientUnits="objectBoundingBox">
      <stop offset="0" stop-color="#ea008b"/>
      <stop offset="1" stop-color="#691f7d"/>
    </linearGradient>
  </defs>
  <g id="marker" transform="translate(-108 -221)">
    <path id="iconmonstr-location-3" d="M83.71,0C41.876,0,4,33.9,4,75.729,4,137.922,67.524,144.5,83.71,239.079c16.167-94.588,79.71-101.162,79.71-163.35C163.387,33.9,125.52,0,83.71,0Zm0,109.578A29.887,29.887,0,1,1,113.578,79.7,29.887,29.887,0,0,1,83.71,109.578Z" transform="translate(104 221)" fill="url(#linear-gradient)"/>
  </g>
</svg>
