<svg xmlns="http://www.w3.org/2000/svg" width="109.258" height="109.258" viewBox="0 0 109.258 109.258">
  <g id="Group_1" data-name="Group 1" transform="translate(-171.492 -264.492)">
    <path id="iconmonstr-facebook-4" d="M54.629,0a54.629,54.629,0,1,0,54.629,54.629A54.631,54.631,0,0,0,54.629,0ZM68.286,36.419H62.14c-2.449,0-2.959,1.006-2.959,3.542v5.563h9.1l-.951,9.1H59.181V86.5H45.524V54.629h-9.1v-9.1h9.1V35.017c0-8.053,4.238-12.255,13.789-12.255h8.973Z" transform="translate(171.492 264.492)" fill="#8f8f8f"/>
  </g>
</svg>
