<svg xmlns="http://www.w3.org/2000/svg" width="117.551" height="117.551" viewBox="0 0 117.551 117.551">
  <g id="Group_1" data-name="Group 1" transform="translate(-122.449 -176.449)">
    <path id="iconmonstr-facebook-4" d="M58.775,0a58.775,58.775,0,1,0,58.775,58.775A58.778,58.778,0,0,0,58.775,0ZM73.469,39.184H66.857c-2.635,0-3.184,1.082-3.184,3.811v5.985h9.8l-1.024,9.8H63.673V93.061H48.979V58.775h-9.8v-9.8h9.8v-11.3c0-8.664,4.56-13.185,14.836-13.185h9.654Z" transform="translate(122.449 176.449)" fill="#ea008b"/>
  </g>
</svg>
