<svg xmlns="http://www.w3.org/2000/svg" width="134.906" height="134.906" viewBox="0 0 134.906 134.906">
  <g id="Group_1" data-name="Group 1" transform="translate(-305.094 -140.094)">
    <path id="iconmonstr-twitter-4" d="M67.453,0a67.453,67.453,0,1,0,67.453,67.453A67.456,67.456,0,0,0,67.453,0Zm34.1,54.215c1.029,22.709-15.908,48.027-45.891,48.027a45.68,45.68,0,0,1-24.744-7.257,32.481,32.481,0,0,0,23.9-6.683A16.182,16.182,0,0,1,39.73,77.088a16.193,16.193,0,0,0,7.3-.275A16.169,16.169,0,0,1,34.075,60.775a16.106,16.106,0,0,0,7.313,2.018,16.169,16.169,0,0,1-5-21.557A45.828,45.828,0,0,0,69.668,58.105,16.158,16.158,0,0,1,97.183,43.378a32.2,32.2,0,0,0,10.253-3.918,16.212,16.212,0,0,1-7.1,8.932,32.208,32.208,0,0,0,9.269-2.546A32.407,32.407,0,0,1,101.551,54.215Z" transform="translate(305.094 140.094)" fill="#ea008b"/>
  </g>
</svg>
